(footprint "voctocat_05mm" (version 20221018) (generator pcbnew)
  (layer "F.Cu")
  (attr exclude_from_pos_files exclude_from_bom)
  (fp_text reference "svg2mod" (at 0 -2.901898) (layer "F.SilkS") hide
      (effects (font (size 1.524 1.524) (thickness 0.3048)))
    (tstamp 36ebb065-10f8-4014-b565-6196494f4eed)
  )
  (fp_text value "G***" (at 0 7.636244) (layer "F.SilkS") hide
      (effects (font (size 1.524 1.524) (thickness 0.3048)))
    (tstamp e15730d6-9a75-466f-9965-60fb10d1e39d)
  )
  (fp_poly
    (pts
      (xy -0.660344 0.556263)
      (xy -0.660344 0.826307)
      (xy -0.556573 0.843959)
      (xy -0.463071 0.892305)
      (xy -0.40448 0.947762)
      (xy -0.361816 1.016232)
      (xy -0.339541 1.09377)
      (xy -0.340681 1.174262)
      (xy -0.362305 1.242749)
      (xy -0.401108 1.303184)
      (xy -0.453957 1.351862)
      (xy -0.516868 1.38657)
      (xy -0.587313 1.406027)
      (xy -0.660344 1.40881)
      (xy -0.660344 2.088244)
      (xy 0.753087 1.321869)
      (xy -0.660392 0.556215)
      (xy -0.660344 0.556263)
    )

    (stroke (width 0) (type solid)) (fill solid) (layer "F.SilkS") (tstamp 8e0ad26a-391b-439d-b77f-6677b52b339d))
  (fp_poly
    (pts
      (xy -0.000077 -2.353897)
      (xy -0.121553 -2.350826)
      (xy -0.241435 -2.341709)
      (xy -0.359575 -2.326695)
      (xy -0.475824 -2.305934)
      (xy -0.590034 -2.279572)
      (xy -0.702056 -2.247759)
      (xy -0.811742 -2.210643)
      (xy -0.918944 -2.168372)
      (xy -1.023513 -2.121094)
      (xy -1.125301 -2.068958)
      (xy -1.22416 -2.012112)
      (xy -1.319941 -1.950704)
      (xy -1.412496 -1.884883)
      (xy -1.501677 -1.814798)
      (xy -1.587335 -1.740595)
      (xy -1.669321 -1.662425)
      (xy -1.747489 -1.580434)
      (xy -1.821688 -1.494772)
      (xy -1.891771 -1.405587)
      (xy -1.95759 -1.313026)
      (xy -2.018995 -1.217239)
      (xy -2.07584 -1.118374)
      (xy -2.127974 -1.016579)
      (xy -2.175251 -0.912002)
      (xy -2.217521 -0.804792)
      (xy -2.254637 -0.695097)
      (xy -2.28645 -0.583065)
      (xy -2.312811 -0.468845)
      (xy -2.333572 -0.352585)
      (xy -2.348585 -0.234434)
      (xy -2.357702 -0.114539)
      (xy -2.360774 0.006951)
      (xy -2.35823 0.113852)
      (xy -2.350847 0.220528)
      (xy -2.338642 0.32676)
      (xy -2.321639 0.432331)
      (xy -2.299872 0.537023)
      (xy -2.273388 0.640623)
      (xy -2.242239 0.742917)
      (xy -2.206491 0.843695)
      (xy -2.170016 0.753992)
      (xy -2.128983 0.666444)
      (xy -2.082228 0.581769)
      (xy -2.043616 0.51861)
      (xy -2.010082 0.453039)
      (xy -1.991157 0.381475)
      (xy -1.997017 0.308794)
      (xy -2.037173 0.235302)
      (xy -2.087272 0.167815)
      (xy -2.128671 0.069725)
      (xy -2.133576 -0.036327)
      (xy -2.09856 -0.136789)
      (xy -2.028095 -0.216069)
      (xy -1.943124 -0.257305)
      (xy -1.848642 -0.268425)
      (xy -1.816965 -0.265668)
      (xy -1.785718 -0.259779)
      (xy -1.670492 -0.208317)
      (xy -1.576629 -0.122884)
      (xy -1.519035 -0.035256)
      (xy -1.480292 0.062384)
      (xy -1.460868 0.165702)
      (xy -1.460545 0.270628)
      (xy -1.477812 0.374274)
      (xy -1.510919 0.474077)
      (xy -1.561164 0.574909)
      (xy -1.62083 0.670853)
      (xy -1.683867 0.765068)
      (xy -1.744225 0.860713)
      (xy -1.795853 0.960945)
      (xy -1.834084 1.06945)
      (xy -1.857522 1.182188)
      (xy -1.867838 1.297303)
      (xy -1.866703 1.412941)
      (xy -1.862379 1.455787)
      (xy -1.792482 1.541115)
      (xy -1.718675 1.623084)
      (xy -1.64112 1.701517)
      (xy -1.559986 1.776242)
      (xy -1.47545 1.847096)
      (xy -1.387698 1.913924)
      (xy -1.296919 1.97658)
      (xy -1.203313 2.034927)
      (xy -1.213495 1.939167)
      (xy -1.220799 1.843145)
      (xy -1.22522 1.746946)
      (xy -1.226754 1.650659)
      (xy -1.224806 1.548568)
      (xy -1.219669 1.44684)
      (xy -1.211383 1.345646)
      (xy -1.298924 1.275319)
      (xy -1.369893 1.189393)
      (xy -1.412691 1.099513)
      (xy -1.435243 1.002374)
      (xy -1.438953 0.901993)
      (xy -1.425228 0.802387)
      (xy -1.396182 0.706725)
      (xy -1.354619 0.615656)
      (xy -1.302968 0.529415)
      (xy -1.243661 0.448236)
      (xy -1.171716 0.364707)
      (xy -1.093356 0.287067)
      (xy -1.009162 0.215711)
      (xy -0.919717 0.151036)
      (xy -0.825602 0.093438)
      (xy -0.727398 0.043313)
      (xy -0.74373 0.020449)
      (xy -0.793293 -0.07216)
      (xy -0.831283 -0.1701)
      (xy -0.857439 -0.271895)
      (xy -0.871499 -0.376068)
      (xy -0.87409 -0.482157)
      (xy -0.868599 -0.588287)
      (xy -0.859334 -0.694425)
      (xy -0.850605 -0.800541)
      (xy -0.845559 -0.899228)
      (xy -0.842136 -0.997948)
      (xy -0.837731 -1.096667)
      (xy -0.828201 -1.210717)
      (xy -0.811444 -1.323816)
      (xy -0.785038 -1.43492)
      (xy -0.736621 -1.549239)
      (xy -0.689236 -1.603922)
      (xy -0.628401 -1.643097)
      (xy -0.557162 -1.661434)
      (xy -0.487183 -1.658948)
      (xy -0.37709 -1.60515)
      (xy -0.289574 -1.518354)
      (xy -0.235147 -1.449632)
      (xy -0.18537 -1.37747)
      (xy -0.14046 -1.302184)
      (xy -0.10061 -1.2241)
      (xy -0.001181 -1.231747)
      (xy 0.098248 -1.2241)
      (xy 0.138106 -1.302206)
      (xy 0.183037 -1.377509)
      (xy 0.232843 -1.449679)
      (xy 0.287307 -1.518402)
      (xy 0.374824 -1.605246)
      (xy 0.484965 -1.658948)
      (xy 0.557239 -1.662288)
      (xy 0.627 -1.643097)
      (xy 0.687856 -1.603779)
      (xy 0.735219 -1.548951)
      (xy 0.783636 -1.434871)
      (xy 0.810009 -1.323772)
      (xy 0.826753 -1.210697)
      (xy 0.836281 -1.096715)
      (xy 0.840711 -0.997891)
      (xy 0.84418 -0.899045)
      (xy 0.84925 -0.800348)
      (xy 0.85801 -0.694236)
      (xy 0.867346 -0.588154)
      (xy 0.872918 -0.4821)
      (xy 0.870384 -0.376068)
      (xy 0.856334 -0.271882)
      (xy 0.830016 -0.170101)
      (xy 0.791801 -0.072164)
      (xy 0.742231 0.020545)
      (xy 0.723498 0.046963)
      (xy 0.801594 0.114943)
      (xy 0.887004 0.158785)
      (xy 0.981915 0.175715)
      (xy 1.077889 0.166566)
      (xy 1.128322 0.150263)
      (xy 1.175108 0.125353)
      (xy 1.175108 0.125354)
      (xy 1.215687 0.091524)
      (xy 1.247398 0.049268)
      (xy 1.282463 -0.075859)
      (xy 1.287568 -0.18703)
      (xy 1.282481 -0.298521)
      (xy 1.273337 -0.409884)
      (xy 1.267375 -0.518536)
      (xy 1.278235 -0.626035)
      (xy 1.303009 -0.695396)
      (xy 1.346443 -0.753948)
      (xy 1.38596 -0.782143)
      (xy 1.431077 -0.800061)
      (xy 1.479081 -0.807638)
      (xy 1.527624 -0.805346)
      (xy 1.625348 -0.769458)
      (xy 1.70016 -0.69751)
      (xy 1.743486 -0.587369)
      (xy 1.75655 -0.469207)
      (xy 1.760777 -0.365313)
      (xy 1.762482 -0.261366)
      (xy 1.762062 -0.157382)
      (xy 1.759913 -0.05338)
      (xy 1.754074 0.068162)
      (xy 1.73738 0.188211)
      (xy 1.701408 0.303029)
      (xy 1.643715 0.403167)
      (xy 1.567329 0.490341)
      (xy 1.477226 0.565132)
      (xy 1.378384 0.62812)
      (xy 1.308978 0.664214)
      (xy 1.237503 0.696016)
      (xy 1.164225 0.723405)
      (xy 1.089414 0.746282)
      (xy 1.124438 0.86809)
      (xy 1.154246 0.993107)
      (xy 1.178776 1.120887)
      (xy 1.197964 1.250986)
      (xy 1.211748 1.38296)
      (xy 1.220065 1.516364)
      (xy 1.222851 1.650754)
      (xy 1.222851 1.650753)
      (xy 1.221125 1.747751)
      (xy 1.216464 1.844651)
      (xy 1.208871 1.941367)
      (xy 1.198355 2.037808)
      (xy 1.263629 1.997912)
      (xy 1.327577 1.955922)
      (xy 1.39013 1.911883)
      (xy 1.451224 1.86584)
      (xy 1.510794 1.817841)
      (xy 1.568777 1.767938)
      (xy 1.625113 1.716182)
      (xy 1.679742 1.662628)
      (xy 1.732608 1.607331)
      (xy 1.783654 1.550351)
      (xy 1.832827 1.491747)
      (xy 1.880075 1.431581)
      (xy 1.925349 1.369915)
      (xy 1.968602 1.306814)
      (xy 2.009787 1.242346)
      (xy 2.048861 1.176576)
      (xy 2.085784 1.109576)
      (xy 2.120517 1.041413)
      (xy 2.153023 0.972162)
      (xy 2.183268 0.901893)
      (xy 2.211221 0.830682)
      (xy 2.236851 0.758602)
      (xy 2.260133 0.685729)
      (xy 2.281041 0.612141)
      (xy 2.299554 0.537913)
      (xy 2.315652 0.463125)
      (xy 2.329318 0.387854)
      (xy 2.340539 0.31218)
      (xy 2.349301 0.236183)
      (xy 2.355597 0.159941)
      (xy 2.359419 0.083535)
      (xy 2.360763 0.007046)
      (xy 2.357678 -0.114448)
      (xy 2.348549 -0.234347)
      (xy 2.333525 -0.352501)
      (xy 2.312753 -0.468764)
      (xy 2.286382 -0.582986)
      (xy 2.25456 -0.695019)
      (xy 2.217436 -0.804716)
      (xy 2.175158 -0.911927)
      (xy 2.127874 -1.016504)
      (xy 2.075732 -1.1183)
      (xy 2.018882 -1.217165)
      (xy 1.957471 -1.312952)
      (xy 1.891647 -1.405511)
      (xy 1.82156 -1.494696)
      (xy 1.747356 -1.580357)
      (xy 1.669186 -1.662347)
      (xy 1.587196 -1.740516)
      (xy 1.501535 -1.814717)
      (xy 1.412352 -1.884802)
      (xy 1.319795 -1.950621)
      (xy 1.224012 -2.012027)
      (xy 1.125152 -2.068871)
      (xy 1.023363 -2.121006)
      (xy 0.918792 -2.168282)
      (xy 0.81159 -2.210552)
      (xy 0.701903 -2.247667)
      (xy 0.589881 -2.279479)
      (xy 0.475671 -2.30584)
      (xy 0.359422 -2.326601)
      (xy 0.241282 -2.341613)
      (xy 0.1214 -2.35073)
      (xy -0.000077 -2.353801)
      (xy -0.000077 -2.353897)
    )

    (stroke (width 0) (type solid)) (fill solid) (layer "F.SilkS") (tstamp 29e9a178-ca02-43a2-a7d6-3dad015f262f))
  (group "" (id d8da6204-bdc5-48eb-9b93-f27ef78cf3ba)
    (members
      29e9a178-ca02-43a2-a7d6-3dad015f262f
      8e0ad26a-391b-439d-b77f-6677b52b339d
    )
  )
)
