(footprint "voctocat_15mm" (version 20221018) (generator pcbnew)
  (layer "F.Cu")
  (attr exclude_from_pos_files exclude_from_bom)
  (fp_text reference "svg2mod" (at 0 -2.609693) (layer "F.SilkS") hide
      (effects (font (size 1.524 1.524) (thickness 0.3048)))
    (tstamp 9a466bf8-3574-49e1-9ce9-59e1eec35dcd)
  )
  (fp_text value "G***" (at 0 16.812733) (layer "F.SilkS") hide
      (effects (font (size 1.524 1.524) (thickness 0.3048)))
    (tstamp f1fff9bd-a423-4058-afb5-5028f5d21130)
  )
  (fp_poly
    (pts
      (xy -1.981031 1.668788)
      (xy -1.981031 2.478922)
      (xy -1.669719 2.531878)
      (xy -1.389212 2.676916)
      (xy -1.21344 2.843286)
      (xy -1.085448 3.048695)
      (xy -1.018622 3.28131)
      (xy -1.022044 3.522787)
      (xy -1.086915 3.728247)
      (xy -1.203323 3.909553)
      (xy -1.36187 4.055585)
      (xy -1.550603 4.159711)
      (xy -1.76194 4.218082)
      (xy -1.981031 4.226429)
      (xy -1.981031 6.264733)
      (xy 2.25926 3.965608)
      (xy -1.981176 1.668644)
      (xy -1.981031 1.668788)
    )

    (stroke (width 0) (type solid)) (fill solid) (layer "F.SilkS") (tstamp 9d899b40-92f1-47fb-908f-4896e6acb255))
  (fp_poly
    (pts
      (xy -0.00023 -7.061692)
      (xy -0.364659 -7.052477)
      (xy -0.724306 -7.025126)
      (xy -1.078725 -6.980086)
      (xy -1.427472 -6.917802)
      (xy -1.770101 -6.838717)
      (xy -2.106167 -6.743278)
      (xy -2.435225 -6.631929)
      (xy -2.756831 -6.505115)
      (xy -3.070538 -6.363282)
      (xy -3.375903 -6.206873)
      (xy -3.67248 -6.036335)
      (xy -3.959823 -5.852113)
      (xy -4.237488 -5.65465)
      (xy -4.50503 -5.444393)
      (xy -4.762004 -5.221786)
      (xy -5.007964 -4.987274)
      (xy -5.242466 -4.741302)
      (xy -5.465064 -4.484316)
      (xy -5.675313 -4.21676)
      (xy -5.872769 -3.939079)
      (xy -6.056986 -3.651718)
      (xy -6.227519 -3.355122)
      (xy -6.383923 -3.049736)
      (xy -6.525753 -2.736006)
      (xy -6.652564 -2.414376)
      (xy -6.763911 -2.08529)
      (xy -6.859349 -1.749195)
      (xy -6.938432 -1.406536)
      (xy -7.000717 -1.057756)
      (xy -7.045756 -0.703301)
      (xy -7.073107 -0.343617)
      (xy -7.082322 0.020853)
      (xy -7.074689 0.341555)
      (xy -7.052542 0.661584)
      (xy -7.015926 0.98028)
      (xy -6.964916 1.296993)
      (xy -6.899617 1.61107)
      (xy -6.820164 1.921868)
      (xy -6.726718 2.22875)
      (xy -6.619472 2.531085)
      (xy -6.510047 2.261975)
      (xy -6.386948 1.999333)
      (xy -6.246685 1.745306)
      (xy -6.130847 1.555831)
      (xy -6.030247 1.359116)
      (xy -5.973471 1.144424)
      (xy -5.991052 0.926382)
      (xy -6.111519 0.705907)
      (xy -6.261816 0.503446)
      (xy -6.386012 0.209175)
      (xy -6.400728 -0.108981)
      (xy -6.295679 -0.410368)
      (xy -6.084284 -0.648206)
      (xy -5.829371 -0.771916)
      (xy -5.545926 -0.805276)
      (xy -5.450895 -0.797003)
      (xy -5.357155 -0.779338)
      (xy -5.011477 -0.624952)
      (xy -4.729887 -0.368651)
      (xy -4.557105 -0.105768)
      (xy -4.440875 0.187151)
      (xy -4.382605 0.497105)
      (xy -4.381634 0.811885)
      (xy -4.433436 1.122822)
      (xy -4.532758 1.422232)
      (xy -4.683493 1.724728)
      (xy -4.862491 2.01256)
      (xy -5.051601 2.295205)
      (xy -5.232674 2.582138)
      (xy -5.38756 2.882836)
      (xy -5.502252 3.20835)
      (xy -5.572567 3.546563)
      (xy -5.603514 3.891909)
      (xy -5.600108 4.238822)
      (xy -5.587138 4.36736)
      (xy -5.377445 4.623344)
      (xy -5.156025 4.869253)
      (xy -4.92336 5.104552)
      (xy -4.679958 5.328727)
      (xy -4.426351 5.541287)
      (xy -4.163093 5.741771)
      (xy -3.890758 5.929739)
      (xy -3.60994 6.104781)
      (xy -3.640484 5.817501)
      (xy -3.662398 5.529434)
      (xy -3.67566 5.240839)
      (xy -3.680261 4.951977)
      (xy -3.674417 4.645704)
      (xy -3.659006 4.34052)
      (xy -3.634149 4.036937)
      (xy -3.896771 3.825957)
      (xy -4.10968 3.568179)
      (xy -4.238073 3.298539)
      (xy -4.305728 3.007123)
      (xy -4.31686 2.70598)
      (xy -4.275683 2.407161)
      (xy -4.188547 2.120175)
      (xy -4.063856 1.846969)
      (xy -3.908903 1.588245)
      (xy -3.730984 1.344707)
      (xy -3.515149 1.094121)
      (xy -3.280068 0.861201)
      (xy -3.027487 0.647133)
      (xy -2.759151 0.453108)
      (xy -2.476805 0.280313)
      (xy -2.182195 0.129938)
      (xy -2.231191 0.061346)
      (xy -2.37988 -0.21648)
      (xy -2.49385 -0.510301)
      (xy -2.572317 -0.815686)
      (xy -2.614498 -1.128205)
      (xy -2.622271 -1.446471)
      (xy -2.605797 -1.76486)
      (xy -2.578002 -2.083275)
      (xy -2.551814 -2.401622)
      (xy -2.536678 -2.697685)
      (xy -2.526408 -2.993843)
      (xy -2.513193 -3.290002)
      (xy -2.484604 -3.63215)
      (xy -2.434333 -3.971449)
      (xy -2.355115 -4.304759)
      (xy -2.209862 -4.647718)
      (xy -2.067707 -4.811765)
      (xy -1.885204 -4.929291)
      (xy -1.671485 -4.984301)
      (xy -1.461549 -4.976844)
      (xy -1.131271 -4.815451)
      (xy -0.868721 -4.555062)
      (xy -0.705442 -4.348895)
      (xy -0.556111 -4.132411)
      (xy -0.421379 -3.906552)
      (xy -0.301831 -3.672301)
      (xy -0.003544 -3.695241)
      (xy 0.294743 -3.672301)
      (xy 0.414319 -3.906619)
      (xy 0.54911 -4.132526)
      (xy 0.698528 -4.349037)
      (xy 0.861922 -4.555206)
      (xy 1.124473 -4.815739)
      (xy 1.454894 -4.976844)
      (xy 1.671718 -4.986865)
      (xy 1.880999 -4.929291)
      (xy 2.063567 -4.811337)
      (xy 2.205656 -4.646853)
      (xy 2.350909 -4.304614)
      (xy 2.430026 -3.971315)
      (xy 2.480258 -3.632091)
      (xy 2.508843 -3.290146)
      (xy 2.522133 -2.993672)
      (xy 2.532539 -2.697135)
      (xy 2.547749 -2.401045)
      (xy 2.57403 -2.082707)
      (xy 2.602039 -1.764463)
      (xy 2.618754 -1.4463)
      (xy 2.611153 -1.128205)
      (xy 2.569002 -0.815647)
      (xy 2.490047 -0.510304)
      (xy 2.375404 -0.216492)
      (xy 2.226694 0.061634)
      (xy 2.170495 0.14089)
      (xy 2.404783 0.344828)
      (xy 2.661012 0.476356)
      (xy 2.945744 0.527145)
      (xy 3.233666 0.499699)
      (xy 3.384967 0.450789)
      (xy 3.525324 0.37606)
      (xy 3.525324 0.376061)
      (xy 3.647062 0.274572)
      (xy 3.742195 0.147805)
      (xy 3.847388 -0.227577)
      (xy 3.862705 -0.56109)
      (xy 3.847442 -0.895564)
      (xy 3.82001 -1.229653)
      (xy 3.802126 -1.555608)
      (xy 3.834704 -1.878106)
      (xy 3.909026 -2.086187)
      (xy 4.039328 -2.261845)
      (xy 4.157881 -2.346429)
      (xy 4.293232 -2.400182)
      (xy 4.437242 -2.422915)
      (xy 4.582873 -2.416037)
      (xy 4.876045 -2.308374)
      (xy 5.100481 -2.092531)
      (xy 5.230459 -1.762108)
      (xy 5.269649 -1.40762)
      (xy 5.28233 -1.095939)
      (xy 5.287445 -0.784097)
      (xy 5.286185 -0.472146)
      (xy 5.279738 -0.160141)
      (xy 5.262223 0.204487)
      (xy 5.21214 0.564632)
      (xy 5.104224 0.909086)
      (xy 4.931144 1.209501)
      (xy 4.701986 1.471024)
      (xy 4.431679 1.695395)
      (xy 4.135151 1.884359)
      (xy 3.926934 1.992643)
      (xy 3.71251 2.088047)
      (xy 3.492675 2.170216)
      (xy 3.268243 2.238846)
      (xy 3.373314 2.604271)
      (xy 3.462738 2.979321)
      (xy 3.536328 3.362662)
      (xy 3.593893 3.752959)
      (xy 3.635245 4.148881)
      (xy 3.660195 4.549092)
      (xy 3.668554 4.952261)
      (xy 3.668554 4.95226)
      (xy 3.663375 5.243252)
      (xy 3.649391 5.533954)
      (xy 3.626614 5.8241)
      (xy 3.595065 6.113423)
      (xy 3.790888 5.993736)
      (xy 3.982731 5.867767)
      (xy 4.170391 5.735649)
      (xy 4.353672 5.597519)
      (xy 4.532381 5.453524)
      (xy 4.706331 5.303813)
      (xy 4.875339 5.148545)
      (xy 5.039227 4.987883)
      (xy 5.197823 4.821994)
      (xy 5.350962 4.651054)
      (xy 5.498481 4.475242)
      (xy 5.640226 4.294742)
      (xy 5.776048 4.109745)
      (xy 5.905805 3.920443)
      (xy 6.02936 3.727037)
      (xy 6.146584 3.529729)
      (xy 6.257353 3.328727)
      (xy 6.361552 3.12424)
      (xy 6.45907 2.916485)
      (xy 6.549805 2.70568)
      (xy 6.633663 2.492045)
      (xy 6.710554 2.275805)
      (xy 6.780399 2.057188)
      (xy 6.843123 1.836422)
      (xy 6.898662 1.61374)
      (xy 6.946956 1.389375)
      (xy 6.987955 1.163563)
      (xy 7.021616 0.936541)
      (xy 7.047904 0.708548)
      (xy 7.066791 0.479823)
      (xy 7.078256 0.250606)
      (xy 7.082289 0.021137)
      (xy 7.073035 -0.343344)
      (xy 7.045648 -0.70304)
      (xy 7.000574 -1.057504)
      (xy 6.938259 -1.406291)
      (xy 6.859145 -1.748957)
      (xy 6.76368 -2.085058)
      (xy 6.652308 -2.414147)
      (xy 6.525473 -2.73578)
      (xy 6.383621 -3.049512)
      (xy 6.227197 -3.354899)
      (xy 6.056646 -3.651494)
      (xy 5.872413 -3.938855)
      (xy 5.674942 -4.216534)
      (xy 5.464679 -4.484088)
      (xy 5.242069 -4.741072)
      (xy 5.007557 -4.98704)
      (xy 4.761588 -5.221548)
      (xy 4.504606 -5.444152)
      (xy 4.237057 -5.654405)
      (xy 3.959385 -5.851863)
      (xy 3.672037 -6.036081)
      (xy 3.375456 -6.206614)
      (xy 3.070088 -6.363018)
      (xy 2.756377 -6.504847)
      (xy 2.434769 -6.631657)
      (xy 2.105709 -6.743002)
      (xy 1.769642 -6.838438)
      (xy 1.427012 -6.917519)
      (xy 1.078265 -6.979802)
      (xy 0.723846 -7.02484)
      (xy 0.364199 -7.052189)
      (xy -0.00023 -7.061404)
      (xy -0.00023 -7.061692)
    )

    (stroke (width 0) (type solid)) (fill solid) (layer "F.SilkS") (tstamp 78b513fb-6d37-4c48-87f6-a81c1820d210))
  (group "" (id 99e36d92-a948-4d28-ba1b-51a54131eadf)
    (members
      78b513fb-6d37-4c48-87f6-a81c1820d210
      9d899b40-92f1-47fb-908f-4896e6acb255
    )
  )
)
